# Macbethcal
void plastic white_paint
0
0
5 .89 .90 .91 .07 .15

############################################
# Glazing produced by Radiance glaze script
# $Revision$
# Material surface normal points to interior
# Number of panes in system: 1
# Exterior surface s1 type: clear glass
# Interior surface s2 type: clear glass
# Exterior normal hemispherical reflectance: 0.076335
# Interior normal hemispherical reflectance: 0.076335
# Normal hemispherical transmittance: 0.88232
#
void BRTDfunc glass
10
        sr_clear_r sr_clear_g sr_clear_b
        st_clear_r st_clear_g st_clear_b
        0 0 0
        glaze1.cal
0
19
        0 0 0
        0 0 0
        0 0 0
        1
        0.074 0.077 0.079
        0.074 0.077 0.079
        0.862 0.890 0.886

# Building material: Stainless Steel 2
# Reflectance: rho=0.541
void plastic shiny_metal
0
0
5  0.54 0.54 0.55  0.96 0.02

# Building material: Old Galvanised Sheet Metal
# Reflectance: rho=0.271
void metal galvanised_steel
0
0
5  0.259 0.276 0.27  0.3 0.2

void plastic black_rubber
0
0
5 .02 .02 .02 .1 0

void plastic black_void
0
0
5 0 0 0 0 0

# RGB guessed from Dulux fandeck
void trans white_fabric
0
0
7 .69 .70 .71 0 0 .41 0

void plastic white_plastic
0
0
5 .9 .9 .9 .07 .15
