# Average color .03 .03 .03
void colorpict diffuse
7 red green blue textures/grey_fabric_diffuse.pic . frac(Lu) frac(Lv)
0
0

# Macbethcal .07 .05 .04
diffuse plastic grey_fabric
0
0
5 2.3333 1.6667 1.3333 0 0
