# Blender MTL File: 'scene.blend'
# Material Count: 2

newmtl book_cover
Ns 96.078431
Ka 1.000000 1.000000 1.000000
Kd 0.140524 0.200298 0.640000
Ks 0.500000 0.500000 0.500000
Ke 0.000000 0.000000 0.000000
Ni 1.000000
d 1.000000
illum 2

newmtl white_pages
Ns 96.078431
Ka 1.000000 1.000000 1.000000
Kd 0.640000 0.567828 0.559632
Ks 0.500000 0.500000 0.500000
Ke 0.000000 0.000000 0.000000
Ni 1.000000
d 1.000000
illum 2
